Rental - Car Type Api: November 15, 2017, 1:07 am
Response: Array
(
    [0] => Array
        (
            [service_id] => 2
            [service_name] => E C O N O M Y
            [car_Type] => Array
                (
                    [0] => Array
                        (
                            [advance_booking] => 0
                            [advance_booking_time] => 
                            [car_description] => Economy Compacts
                            [car_type_id] => 28
                            [car_type_name] => ECab
                            [car_type_image] => uploads/car/car_28.png
                            [city_id] => 130
                            [base_fare] => No Driver
                            [ride_mode] => 1
                            [currency_iso_code] => USD 
                            [currency_unicode] => 00024
                            [car_mode] => Array
                                (
                                    [0] => Array
                                        (
                                            [car_model_id] => 45
                                            [car_model_name] => Suzuki
                                            [car_model_name_arabic] => 
                                            [car_model_name_french] => 
                                            [car_make] => Suzuki
                                            [car_model] => 
                                            [car_year] => 
                                            [car_color] => 
                                            [car_model_image] => 
                                            [car_type_id] => 28
                                            [car_model_status] => 1
                                        )

                                )

                        )

                    [1] => Array
                        (
                            [advance_booking] => 0
                            [advance_booking_time] => 
                            [car_description] => Standrad Full Size
                            [car_type_id] => 29
                            [car_type_name] => SCab
                            [car_type_image] => uploads/car/car_29.png
                            [city_id] => 130
                            [base_fare] => No Driver
                            [ride_mode] => 1
                            [currency_iso_code] => USD 
                            [currency_unicode] => 00024
                            [car_mode] => Array
                                (
                                    [0] => Array
                                        (
                                            [car_model_id] => 46
                                            [car_model_name] => Ferrari
                                            [car_model_name_arabic] => 
                                            [car_model_name_french] => 
                                            [car_make] => Ferrari
                                            [car_model] => 
                                            [car_year] => 
                                            [car_color] => 
                                            [car_model_image] => 
                                            [car_type_id] => 29
                                            [car_model_status] => 1
                                        )

                                )

                        )

                )

        )

    [1] => Array
        (
            [service_id] => 3
            [service_name] => P R E M I U M  L I N E
            [car_Type] => Array
                (
                    [0] => Array
                        (
                            [advance_booking] => 0
                            [advance_booking_time] => 
                            [car_description] => SUV and Minivan
                            [car_type_id] => 30
                            [car_type_name] => XCab
                            [car_type_image] => uploads/car/car_30.png
                            [city_id] => 130
                            [base_fare] => No Driver
                            [ride_mode] => 1
                            [currency_iso_code] => USD 
                            [currency_unicode] => 00024
                            [car_mode] => Array
                                (
                                    [0] => Array
                                        (
                                            [car_model_id] => 48
                                            [car_model_name] => Mercedes
                                            [car_model_name_arabic] => 
                                            [car_model_name_french] => 
                                            [car_make] => Mercedes
                                            [car_model] => 
                                            [car_year] => 
                                            [car_color] => 
                                            [car_model_image] => 
                                            [car_type_id] => 30
                                            [car_model_status] => 1
                                        )

                                )

                        )

                    [1] => Array
                        (
                            [advance_booking] => 0
                            [advance_booking_time] => 
                            [car_description] => Luxury full Size
                            [car_type_id] => 31
                            [car_type_name] => LXCab
                            [car_type_image] => uploads/car/car_31.png
                            [city_id] => 130
                            [base_fare] => 4.95 Per 0 Miles
                            [ride_mode] => 1
                            [currency_iso_code] => USD 
                            [currency_unicode] => 00024
                            [car_mode] => Array
                                (
                                    [0] => Array
                                        (
                                            [car_model_id] => 49
                                            [car_model_name] => taxi
                                            [car_model_name_arabic] => 
                                            [car_model_name_french] => 
                                            [car_make] => taxi
                                            [car_model] => 
                                            [car_year] => 
                                            [car_color] => 
                                            [car_model_image] => 
                                            [car_type_id] => 31
                                            [car_model_status] => 1
                                        )

                                )

                        )

                )

        )

    [2] => Array
        (
            [service_id] => 4
            [service_name] => U L T R A
            [car_Type] => Array
                (
                    [0] => Array
                        (
                            [advance_booking] => 1
                            [advance_booking_time] => 2:00 
                            [car_description] => Black SUV & Mini Limo
                            [car_type_id] => 33
                            [car_type_name] => UXCab
                            [car_type_image] => uploads/car/car_33.png
                            [city_id] => 130
                            [base_fare] => No Driver
                            [ride_mode] => 1
                            [currency_iso_code] => USD 
                            [currency_unicode] => 00024
                            [car_mode] => Array
                                (
                                    [0] => Array
                                        (
                                            [car_model_id] => 50
                                            [car_model_name] => yamaha
                                            [car_model_name_arabic] => 
                                            [car_model_name_french] => 
                                            [car_make] => yamaha
                                            [car_model] => 
                                            [car_year] => 
                                            [car_color] => 
                                            [car_model_image] => 
                                            [car_type_id] => 33
                                            [car_model_status] => 1
                                        )

                                )

                        )

                )

        )

    [3] => Array
        (
            [service_id] => 5
            [service_name] => Wheelchair A C C E S S
            [car_Type] => Array
                (
                    [0] => Array
                        (
                            [advance_booking] => 0
                            [advance_booking_time] => 
                            [car_description] => Whellchair Accessible
                            [car_type_id] => 34
                            [car_type_name] => Wheel Access
                            [car_type_image] => uploads/car/car_34.png
                            [city_id] => 130
                            [base_fare] => No Driver
                            [ride_mode] => 1
                            [currency_iso_code] => USD 
                            [currency_unicode] => 00024
                            [car_mode] => Array
                                (
                                    [0] => Array
                                        (
                                            [car_model_id] => 51
                                            [car_model_name] => Tesla
                                            [car_model_name_arabic] => 
                                            [car_model_name_french] => 
                                            [car_make] => Tesla
                                            [car_model] => 
                                            [car_year] => 
                                            [car_color] => 
                                            [car_model_image] => 
                                            [car_type_id] => 34
                                            [car_model_status] => 1
                                        )

                                )

                        )

                )

        )

)

city_name: Livermore
latitude: 37.71452557768427
longitude: -121.72543477267025
-------------------------
Rental - Car Type Api: November 15, 2017, 12:42 pm
Response: Array
(
    [0] => Array
        (
            [service_id] => 2
            [service_name] => E C O N O M Y
            [car_Type] => Array
                (
                    [0] => Array
                        (
                            [advance_booking] => 0
                            [advance_booking_time] => 
                            [car_description] => Economy Compacts
                            [car_type_id] => 28
                            [car_type_name] => ECab
                            [car_type_image] => uploads/car/car_28.png
                            [city_id] => 56
                            [base_fare] => No Driver
                            [ride_mode] => 1
                            [currency_iso_code] => AUD
                            [currency_unicode] => 0024
                            [car_mode] => Array
                                (
                                    [0] => Array
                                        (
                                            [car_model_id] => 45
                                            [car_model_name] => Suzuki
                                            [car_model_name_arabic] => 
                                            [car_model_name_french] => 
                                            [car_make] => Suzuki
                                            [car_model] => 
                                            [car_year] => 
                                            [car_color] => 
                                            [car_model_image] => 
                                            [car_type_id] => 28
                                            [car_model_status] => 1
                                        )

                                )

                        )

                    [1] => Array
                        (
                            [advance_booking] => 0
                            [advance_booking_time] => 
                            [car_description] => Standrad Full Size
                            [car_type_id] => 29
                            [car_type_name] => SCab
                            [car_type_image] => uploads/car/car_29.png
                            [city_id] => 56
                            [base_fare] => No Driver
                            [ride_mode] => 1
                            [currency_iso_code] => AUD
                            [currency_unicode] => 0024
                            [car_mode] => Array
                                (
                                    [0] => Array
                                        (
                                            [car_model_id] => 46
                                            [car_model_name] => Ferrari
                                            [car_model_name_arabic] => 
                                            [car_model_name_french] => 
                                            [car_make] => Ferrari
                                            [car_model] => 
                                            [car_year] => 
                                            [car_color] => 
                                            [car_model_image] => 
                                            [car_type_id] => 29
                                            [car_model_status] => 1
                                        )

                                )

                        )

                )

        )

    [1] => Array
        (
            [service_id] => 3
            [service_name] => P R E M I U M  L I N E
            [car_Type] => Array
                (
                    [0] => Array
                        (
                            [advance_booking] => 0
                            [advance_booking_time] => 
                            [car_description] => SUV and Minivan
                            [car_type_id] => 30
                            [car_type_name] => XCab
                            [car_type_image] => uploads/car/car_30.png
                            [city_id] => 56
                            [base_fare] => No Driver
                            [ride_mode] => 1
                            [currency_iso_code] => AUD
                            [currency_unicode] => 0024
                            [car_mode] => Array
                                (
                                    [0] => Array
                                        (
                                            [car_model_id] => 48
                                            [car_model_name] => Mercedes
                                            [car_model_name_arabic] => 
                                            [car_model_name_french] => 
                                            [car_make] => Mercedes
                                            [car_model] => 
                                            [car_year] => 
                                            [car_color] => 
                                            [car_model_image] => 
                                            [car_type_id] => 30
                                            [car_model_status] => 1
                                        )

                                )

                        )

                    [1] => Array
                        (
                            [advance_booking] => 0
                            [advance_booking_time] => 
                            [car_description] => Luxury full Size
                            [car_type_id] => 31
                            [car_type_name] => LXCab
                            [car_type_image] => uploads/car/car_31.png
                            [city_id] => 56
                            [base_fare] => 5 Per 10 Miles
                            [ride_mode] => 1
                            [currency_iso_code] => AUD
                            [currency_unicode] => 0024
                            [car_mode] => Array
                                (
                                    [0] => Array
                                        (
                                            [car_model_id] => 49
                                            [car_model_name] => taxi
                                            [car_model_name_arabic] => 
                                            [car_model_name_french] => 
                                            [car_make] => taxi
                                            [car_model] => 
                                            [car_year] => 
                                            [car_color] => 
                                            [car_model_image] => 
                                            [car_type_id] => 31
                                            [car_model_status] => 1
                                        )

                                )

                        )

                )

        )

    [2] => Array
        (
            [service_id] => 4
            [service_name] => U L T R A
            [car_Type] => Array
                (
                    [0] => Array
                        (
                            [advance_booking] => 1
                            [advance_booking_time] => 2:00 
                            [car_description] => Black SUV & Mini Limo
                            [car_type_id] => 33
                            [car_type_name] => UXCab
                            [car_type_image] => uploads/car/car_33.png
                            [city_id] => 56
                            [base_fare] => No Driver
                            [ride_mode] => 1
                            [currency_iso_code] => AUD
                            [currency_unicode] => 0024
                            [car_mode] => Array
                                (
                                    [0] => Array
                                        (
                                            [car_model_id] => 50
                                            [car_model_name] => yamaha
                                            [car_model_name_arabic] => 
                                            [car_model_name_french] => 
                                            [car_make] => yamaha
                                            [car_model] => 
                                            [car_year] => 
                                            [car_color] => 
                                            [car_model_image] => 
                                            [car_type_id] => 33
                                            [car_model_status] => 1
                                        )

                                )

                        )

                )

        )

    [3] => Array
        (
            [service_id] => 5
            [service_name] => Wheelchair A C C E S S
            [car_Type] => Array
                (
                    [0] => Array
                        (
                            [advance_booking] => 0
                            [advance_booking_time] => 
                            [car_description] => Whellchair Accessible
                            [car_type_id] => 34
                            [car_type_name] => Wheel Access
                            [car_type_image] => uploads/car/car_34.png
                            [city_id] => 56
                            [base_fare] => No Driver
                            [ride_mode] => 1
                            [currency_iso_code] => AUD
                            [currency_unicode] => 0024
                            [car_mode] => Array
                                (
                                    [0] => Array
                                        (
                                            [car_model_id] => 51
                                            [car_model_name] => Tesla
                                            [car_model_name_arabic] => 
                                            [car_model_name_french] => 
                                            [car_make] => Tesla
                                            [car_model] => 
                                            [car_year] => 
                                            [car_color] => 
                                            [car_model_image] => 
                                            [car_type_id] => 34
                                            [car_model_status] => 1
                                        )

                                )

                        )

                )

        )

)

city_name: Gurugram
latitude: 28.412328487060684
longitude: 77.04342607408762
-------------------------
Rental - Car Type Api: November 15, 2017, 12:45 pm
Response: Array
(
    [0] => Array
        (
            [service_id] => 2
            [service_name] => E C O N O M Y
            [car_Type] => Array
                (
                    [0] => Array
                        (
                            [advance_booking] => 0
                            [advance_booking_time] => 
                            [car_description] => Economy Compacts
                            [car_type_id] => 28
                            [car_type_name] => ECab
                            [car_type_image] => uploads/car/car_28.png
                            [city_id] => 56
                            [base_fare] => No Driver
                            [ride_mode] => 1
                            [currency_iso_code] => AUD
                            [currency_unicode] => 0024
                            [car_mode] => Array
                                (
                                    [0] => Array
                                        (
                                            [car_model_id] => 45
                                            [car_model_name] => Suzuki
                                            [car_model_name_arabic] => 
                                            [car_model_name_french] => 
                                            [car_make] => Suzuki
                                            [car_model] => 
                                            [car_year] => 
                                            [car_color] => 
                                            [car_model_image] => 
                                            [car_type_id] => 28
                                            [car_model_status] => 1
                                        )

                                )

                        )

                    [1] => Array
                        (
                            [advance_booking] => 0
                            [advance_booking_time] => 
                            [car_description] => Standrad Full Size
                            [car_type_id] => 29
                            [car_type_name] => SCab
                            [car_type_image] => uploads/car/car_29.png
                            [city_id] => 56
                            [base_fare] => No Driver
                            [ride_mode] => 1
                            [currency_iso_code] => AUD
                            [currency_unicode] => 0024
                            [car_mode] => Array
                                (
                                    [0] => Array
                                        (
                                            [car_model_id] => 46
                                            [car_model_name] => Ferrari
                                            [car_model_name_arabic] => 
                                            [car_model_name_french] => 
                                            [car_make] => Ferrari
                                            [car_model] => 
                                            [car_year] => 
                                            [car_color] => 
                                            [car_model_image] => 
                                            [car_type_id] => 29
                                            [car_model_status] => 1
                                        )

                                )

                        )

                )

        )

    [1] => Array
        (
            [service_id] => 3
            [service_name] => P R E M I U M  L I N E
            [car_Type] => Array
                (
                    [0] => Array
                        (
                            [advance_booking] => 0
                            [advance_booking_time] => 
                            [car_description] => SUV and Minivan
                            [car_type_id] => 30
                            [car_type_name] => XCab
                            [car_type_image] => uploads/car/car_30.png
                            [city_id] => 56
                            [base_fare] => No Driver
                            [ride_mode] => 1
                            [currency_iso_code] => AUD
                            [currency_unicode] => 0024
                            [car_mode] => Array
                                (
                                    [0] => Array
                                        (
                                            [car_model_id] => 48
                                            [car_model_name] => Mercedes
                                            [car_model_name_arabic] => 
                                            [car_model_name_french] => 
                                            [car_make] => Mercedes
                                            [car_model] => 
                                            [car_year] => 
                                            [car_color] => 
                                            [car_model_image] => 
                                            [car_type_id] => 30
                                            [car_model_status] => 1
                                        )

                                )

                        )

                    [1] => Array
                        (
                            [advance_booking] => 0
                            [advance_booking_time] => 
                            [car_description] => Luxury full Size
                            [car_type_id] => 31
                            [car_type_name] => LXCab
                            [car_type_image] => uploads/car/car_31.png
                            [city_id] => 56
                            [base_fare] => 5 Per 10 Miles
                            [ride_mode] => 1
                            [currency_iso_code] => AUD
                            [currency_unicode] => 0024
                            [car_mode] => Array
                                (
                                    [0] => Array
                                        (
                                            [car_model_id] => 49
                                            [car_model_name] => taxi
                                            [car_model_name_arabic] => 
                                            [car_model_name_french] => 
                                            [car_make] => taxi
                                            [car_model] => 
                                            [car_year] => 
                                            [car_color] => 
                                            [car_model_image] => 
                                            [car_type_id] => 31
                                            [car_model_status] => 1
                                        )

                                )

                        )

                )

        )

    [2] => Array
        (
            [service_id] => 4
            [service_name] => U L T R A
            [car_Type] => Array
                (
                    [0] => Array
                        (
                            [advance_booking] => 1
                            [advance_booking_time] => 2:00 
                            [car_description] => Black SUV & Mini Limo
                            [car_type_id] => 33
                            [car_type_name] => UXCab
                            [car_type_image] => uploads/car/car_33.png
                            [city_id] => 56
                            [base_fare] => No Driver
                            [ride_mode] => 1
                            [currency_iso_code] => AUD
                            [currency_unicode] => 0024
                            [car_mode] => Array
                                (
                                    [0] => Array
                                        (
                                            [car_model_id] => 50
                                            [car_model_name] => yamaha
                                            [car_model_name_arabic] => 
                                            [car_model_name_french] => 
                                            [car_make] => yamaha
                                            [car_model] => 
                                            [car_year] => 
                                            [car_color] => 
                                            [car_model_image] => 
                                            [car_type_id] => 33
                                            [car_model_status] => 1
                                        )

                                )

                        )

                )

        )

    [3] => Array
        (
            [service_id] => 5
            [service_name] => Wheelchair A C C E S S
            [car_Type] => Array
                (
                    [0] => Array
                        (
                            [advance_booking] => 0
                            [advance_booking_time] => 
                            [car_description] => Whellchair Accessible
                            [car_type_id] => 34
                            [car_type_name] => Wheel Access
                            [car_type_image] => uploads/car/car_34.png
                            [city_id] => 56
                            [base_fare] => No Driver
                            [ride_mode] => 1
                            [currency_iso_code] => AUD
                            [currency_unicode] => 0024
                            [car_mode] => Array
                                (
                                    [0] => Array
                                        (
                                            [car_model_id] => 51
                                            [car_model_name] => Tesla
                                            [car_model_name_arabic] => 
                                            [car_model_name_french] => 
                                            [car_make] => Tesla
                                            [car_model] => 
                                            [car_year] => 
                                            [car_color] => 
                                            [car_model_image] => 
                                            [car_type_id] => 34
                                            [car_model_status] => 1
                                        )

                                )

                        )

                )

        )

)

city_name: Gurugram
latitude: 28.412326717715597
longitude: 77.04344518482685
-------------------------
Rental - Car Type Api: November 15, 2017, 12:54 pm
Response: Array
(
    [0] => Array
        (
            [service_id] => 2
            [service_name] => E C O N O M Y
            [car_Type] => Array
                (
                    [0] => Array
                        (
                            [advance_booking] => 0
                            [advance_booking_time] => 
                            [car_description] => Economy Compacts
                            [car_type_id] => 28
                            [car_type_name] => ECab
                            [car_type_image] => uploads/car/car_28.png
                            [city_id] => 56
                            [base_fare] => No Driver
                            [ride_mode] => 1
                            [currency_iso_code] => AUD
                            [currency_unicode] => 0024
                            [car_mode] => Array
                                (
                                    [0] => Array
                                        (
                                            [car_model_id] => 45
                                            [car_model_name] => Suzuki
                                            [car_model_name_arabic] => 
                                            [car_model_name_french] => 
                                            [car_make] => Suzuki
                                            [car_model] => 
                                            [car_year] => 
                                            [car_color] => 
                                            [car_model_image] => 
                                            [car_type_id] => 28
                                            [car_model_status] => 1
                                        )

                                )

                        )

                    [1] => Array
                        (
                            [advance_booking] => 0
                            [advance_booking_time] => 
                            [car_description] => Standrad Full Size
                            [car_type_id] => 29
                            [car_type_name] => SCab
                            [car_type_image] => uploads/car/car_29.png
                            [city_id] => 56
                            [base_fare] => No Driver
                            [ride_mode] => 1
                            [currency_iso_code] => AUD
                            [currency_unicode] => 0024
                            [car_mode] => Array
                                (
                                    [0] => Array
                                        (
                                            [car_model_id] => 46
                                            [car_model_name] => Ferrari
                                            [car_model_name_arabic] => 
                                            [car_model_name_french] => 
                                            [car_make] => Ferrari
                                            [car_model] => 
                                            [car_year] => 
                                            [car_color] => 
                                            [car_model_image] => 
                                            [car_type_id] => 29
                                            [car_model_status] => 1
                                        )

                                )

                        )

                )

        )

    [1] => Array
        (
            [service_id] => 3
            [service_name] => P R E M I U M  L I N E
            [car_Type] => Array
                (
                    [0] => Array
                        (
                            [advance_booking] => 0
                            [advance_booking_time] => 
                            [car_description] => SUV and Minivan
                            [car_type_id] => 30
                            [car_type_name] => XCab
                            [car_type_image] => uploads/car/car_30.png
                            [city_id] => 56
                            [base_fare] => No Driver
                            [ride_mode] => 1
                            [currency_iso_code] => AUD
                            [currency_unicode] => 0024
                            [car_mode] => Array
                                (
                                    [0] => Array
                                        (
                                            [car_model_id] => 48
                                            [car_model_name] => Mercedes
                                            [car_model_name_arabic] => 
                                            [car_model_name_french] => 
                                            [car_make] => Mercedes
                                            [car_model] => 
                                            [car_year] => 
                                            [car_color] => 
                                            [car_model_image] => 
                                            [car_type_id] => 30
                                            [car_model_status] => 1
                                        )

                                )

                        )

                    [1] => Array
                        (
                            [advance_booking] => 0
                            [advance_booking_time] => 
                            [car_description] => Luxury full Size
                            [car_type_id] => 31
                            [car_type_name] => LXCab
                            [car_type_image] => uploads/car/car_31.png
                            [city_id] => 56
                            [base_fare] => 5 Per 10 Miles
                            [ride_mode] => 1
                            [currency_iso_code] => AUD
                            [currency_unicode] => 0024
                            [car_mode] => Array
                                (
                                    [0] => Array
                                        (
                                            [car_model_id] => 49
                                            [car_model_name] => taxi
                                            [car_model_name_arabic] => 
                                            [car_model_name_french] => 
                                            [car_make] => taxi
                                            [car_model] => 
                                            [car_year] => 
                                            [car_color] => 
                                            [car_model_image] => 
                                            [car_type_id] => 31
                                            [car_model_status] => 1
                                        )

                                )

                        )

                )

        )

    [2] => Array
        (
            [service_id] => 4
            [service_name] => U L T R A
            [car_Type] => Array
                (
                    [0] => Array
                        (
                            [advance_booking] => 1
                            [advance_booking_time] => 2:00 
                            [car_description] => Black SUV & Mini Limo
                            [car_type_id] => 33
                            [car_type_name] => UXCab
                            [car_type_image] => uploads/car/car_33.png
                            [city_id] => 56
                            [base_fare] => No Driver
                            [ride_mode] => 1
                            [currency_iso_code] => AUD
                            [currency_unicode] => 0024
                            [car_mode] => Array
                                (
                                    [0] => Array
                                        (
                                            [car_model_id] => 50
                                            [car_model_name] => yamaha
                                            [car_model_name_arabic] => 
                                            [car_model_name_french] => 
                                            [car_make] => yamaha
                                            [car_model] => 
                                            [car_year] => 
                                            [car_color] => 
                                            [car_model_image] => 
                                            [car_type_id] => 33
                                            [car_model_status] => 1
                                        )

                                )

                        )

                )

        )

    [3] => Array
        (
            [service_id] => 5
            [service_name] => Wheelchair A C C E S S
            [car_Type] => Array
                (
                    [0] => Array
                        (
                            [advance_booking] => 0
                            [advance_booking_time] => 
                            [car_description] => Whellchair Accessible
                            [car_type_id] => 34
                            [car_type_name] => Wheel Access
                            [car_type_image] => uploads/car/car_34.png
                            [city_id] => 56
                            [base_fare] => No Driver
                            [ride_mode] => 1
                            [currency_iso_code] => AUD
                            [currency_unicode] => 0024
                            [car_mode] => Array
                                (
                                    [0] => Array
                                        (
                                            [car_model_id] => 51
                                            [car_model_name] => Tesla
                                            [car_model_name_arabic] => 
                                            [car_model_name_french] => 
                                            [car_make] => Tesla
                                            [car_model] => 
                                            [car_year] => 
                                            [car_color] => 
                                            [car_model_image] => 
                                            [car_type_id] => 34
                                            [car_model_status] => 1
                                        )

                                )

                        )

                )

        )

)

city_name: Gurugram
latitude: 28.41232789727898
longitude: 77.04344149678946
-------------------------
Rental - Car Type Api: November 15, 2017, 12:59 pm
Response: Array
(
    [0] => Array
        (
            [service_id] => 2
            [service_name] => E C O N O M Y
            [car_Type] => Array
                (
                    [0] => Array
                        (
                            [advance_booking] => 0
                            [advance_booking_time] => 
                            [car_description] => Economy Compacts
                            [car_type_id] => 28
                            [car_type_name] => ECab
                            [car_type_image] => uploads/car/car_28.png
                            [city_id] => 56
                            [base_fare] => No Driver
                            [ride_mode] => 1
                            [currency_iso_code] => AUD
                            [currency_unicode] => 0024
                            [car_mode] => Array
                                (
                                    [0] => Array
                                        (
                                            [car_model_id] => 45
                                            [car_model_name] => Suzuki
                                            [car_model_name_arabic] => 
                                            [car_model_name_french] => 
                                            [car_make] => Suzuki
                                            [car_model] => 
                                            [car_year] => 
                                            [car_color] => 
                                            [car_model_image] => 
                                            [car_type_id] => 28
                                            [car_model_status] => 1
                                        )

                                )

                        )

                    [1] => Array
                        (
                            [advance_booking] => 0
                            [advance_booking_time] => 
                            [car_description] => Standrad Full Size
                            [car_type_id] => 29
                            [car_type_name] => SCab
                            [car_type_image] => uploads/car/car_29.png
                            [city_id] => 56
                            [base_fare] => No Driver
                            [ride_mode] => 1
                            [currency_iso_code] => AUD
                            [currency_unicode] => 0024
                            [car_mode] => Array
                                (
                                    [0] => Array
                                        (
                                            [car_model_id] => 46
                                            [car_model_name] => Ferrari
                                            [car_model_name_arabic] => 
                                            [car_model_name_french] => 
                                            [car_make] => Ferrari
                                            [car_model] => 
                                            [car_year] => 
                                            [car_color] => 
                                            [car_model_image] => 
                                            [car_type_id] => 29
                                            [car_model_status] => 1
                                        )

                                )

                        )

                )

        )

    [1] => Array
        (
            [service_id] => 3
            [service_name] => P R E M I U M  L I N E
            [car_Type] => Array
                (
                    [0] => Array
                        (
                            [advance_booking] => 0
                            [advance_booking_time] => 
                            [car_description] => SUV and Minivan
                            [car_type_id] => 30
                            [car_type_name] => XCab
                            [car_type_image] => uploads/car/car_30.png
                            [city_id] => 56
                            [base_fare] => No Driver
                            [ride_mode] => 1
                            [currency_iso_code] => AUD
                            [currency_unicode] => 0024
                            [car_mode] => Array
                                (
                                    [0] => Array
                                        (
                                            [car_model_id] => 48
                                            [car_model_name] => Mercedes
                                            [car_model_name_arabic] => 
                                            [car_model_name_french] => 
                                            [car_make] => Mercedes
                                            [car_model] => 
                                            [car_year] => 
                                            [car_color] => 
                                            [car_model_image] => 
                                            [car_type_id] => 30
                                            [car_model_status] => 1
                                        )

                                )

                        )

                    [1] => Array
                        (
                            [advance_booking] => 0
                            [advance_booking_time] => 
                            [car_description] => Luxury full Size
                            [car_type_id] => 31
                            [car_type_name] => LXCab
                            [car_type_image] => uploads/car/car_31.png
                            [city_id] => 56
                            [base_fare] => 5 Per 10 Miles
                            [ride_mode] => 1
                            [currency_iso_code] => AUD
                            [currency_unicode] => 0024
                            [car_mode] => Array
                                (
                                    [0] => Array
                                        (
                                            [car_model_id] => 49
                                            [car_model_name] => taxi
                                            [car_model_name_arabic] => 
                                            [car_model_name_french] => 
                                            [car_make] => taxi
                                            [car_model] => 
                                            [car_year] => 
                                            [car_color] => 
                                            [car_model_image] => 
                                            [car_type_id] => 31
                                            [car_model_status] => 1
                                        )

                                )

                        )

                )

        )

    [2] => Array
        (
            [service_id] => 4
            [service_name] => U L T R A
            [car_Type] => Array
                (
                    [0] => Array
                        (
                            [advance_booking] => 1
                            [advance_booking_time] => 2:00 
                            [car_description] => Black SUV & Mini Limo
                            [car_type_id] => 33
                            [car_type_name] => UXCab
                            [car_type_image] => uploads/car/car_33.png
                            [city_id] => 56
                            [base_fare] => No Driver
                            [ride_mode] => 1
                            [currency_iso_code] => AUD
                            [currency_unicode] => 0024
                            [car_mode] => Array
                                (
                                    [0] => Array
                                        (
                                            [car_model_id] => 50
                                            [car_model_name] => yamaha
                                            [car_model_name_arabic] => 
                                            [car_model_name_french] => 
                                            [car_make] => yamaha
                                            [car_model] => 
                                            [car_year] => 
                                            [car_color] => 
                                            [car_model_image] => 
                                            [car_type_id] => 33
                                            [car_model_status] => 1
                                        )

                                )

                        )

                )

        )

    [3] => Array
        (
            [service_id] => 5
            [service_name] => Wheelchair A C C E S S
            [car_Type] => Array
                (
                    [0] => Array
                        (
                            [advance_booking] => 0
                            [advance_booking_time] => 
                            [car_description] => Whellchair Accessible
                            [car_type_id] => 34
                            [car_type_name] => Wheel Access
                            [car_type_image] => uploads/car/car_34.png
                            [city_id] => 56
                            [base_fare] => No Driver
                            [ride_mode] => 1
                            [currency_iso_code] => AUD
                            [currency_unicode] => 0024
                            [car_mode] => Array
                                (
                                    [0] => Array
                                        (
                                            [car_model_id] => 51
                                            [car_model_name] => Tesla
                                            [car_model_name_arabic] => 
                                            [car_model_name_french] => 
                                            [car_make] => Tesla
                                            [car_model] => 
                                            [car_year] => 
                                            [car_color] => 
                                            [car_model_image] => 
                                            [car_type_id] => 34
                                            [car_model_status] => 1
                                        )

                                )

                        )

                )

        )

)

city_name: Gurugram
latitude: 28.41250453675007
longitude: 77.04406209290028
-------------------------
Rental - Car Type Api: November 15, 2017, 1:04 pm
Response: Array
(
    [0] => Array
        (
            [service_id] => 2
            [service_name] => E C O N O M Y
            [car_Type] => Array
                (
                    [0] => Array
                        (
                            [advance_booking] => 0
                            [advance_booking_time] => 
                            [car_description] => Economy Compacts
                            [car_type_id] => 28
                            [car_type_name] => ECab
                            [car_type_image] => uploads/car/car_28.png
                            [city_id] => 56
                            [base_fare] => No Driver
                            [ride_mode] => 1
                            [currency_iso_code] => AUD
                            [currency_unicode] => 0024
                            [car_mode] => Array
                                (
                                    [0] => Array
                                        (
                                            [car_model_id] => 45
                                            [car_model_name] => Suzuki
                                            [car_model_name_arabic] => 
                                            [car_model_name_french] => 
                                            [car_make] => Suzuki
                                            [car_model] => 
                                            [car_year] => 
                                            [car_color] => 
                                            [car_model_image] => 
                                            [car_type_id] => 28
                                            [car_model_status] => 1
                                        )

                                )

                        )

                    [1] => Array
                        (
                            [advance_booking] => 0
                            [advance_booking_time] => 
                            [car_description] => Standrad Full Size
                            [car_type_id] => 29
                            [car_type_name] => SCab
                            [car_type_image] => uploads/car/car_29.png
                            [city_id] => 56
                            [base_fare] => No Driver
                            [ride_mode] => 1
                            [currency_iso_code] => AUD
                            [currency_unicode] => 0024
                            [car_mode] => Array
                                (
                                    [0] => Array
                                        (
                                            [car_model_id] => 46
                                            [car_model_name] => Ferrari
                                            [car_model_name_arabic] => 
                                            [car_model_name_french] => 
                                            [car_make] => Ferrari
                                            [car_model] => 
                                            [car_year] => 
                                            [car_color] => 
                                            [car_model_image] => 
                                            [car_type_id] => 29
                                            [car_model_status] => 1
                                        )

                                )

                        )

                )

        )

    [1] => Array
        (
            [service_id] => 3
            [service_name] => P R E M I U M  L I N E
            [car_Type] => Array
                (
                    [0] => Array
                        (
                            [advance_booking] => 0
                            [advance_booking_time] => 
                            [car_description] => SUV and Minivan
                            [car_type_id] => 30
                            [car_type_name] => XCab
                            [car_type_image] => uploads/car/car_30.png
                            [city_id] => 56
                            [base_fare] => No Driver
                            [ride_mode] => 1
                            [currency_iso_code] => AUD
                            [currency_unicode] => 0024
                            [car_mode] => Array
                                (
                                    [0] => Array
                                        (
                                            [car_model_id] => 48
                                            [car_model_name] => Mercedes
                                            [car_model_name_arabic] => 
                                            [car_model_name_french] => 
                                            [car_make] => Mercedes
                                            [car_model] => 
                                            [car_year] => 
                                            [car_color] => 
                                            [car_model_image] => 
                                            [car_type_id] => 30
                                            [car_model_status] => 1
                                        )

                                )

                        )

                    [1] => Array
                        (
                            [advance_booking] => 0
                            [advance_booking_time] => 
                            [car_description] => Luxury full Size
                            [car_type_id] => 31
                            [car_type_name] => LXCab
                            [car_type_image] => uploads/car/car_31.png
                            [city_id] => 56
                            [base_fare] => 5 Per 10 Miles
                            [ride_mode] => 1
                            [currency_iso_code] => AUD
                            [currency_unicode] => 0024
                            [car_mode] => Array
                                (
                                    [0] => Array
                                        (
                                            [car_model_id] => 49
                                            [car_model_name] => taxi
                                            [car_model_name_arabic] => 
                                            [car_model_name_french] => 
                                            [car_make] => taxi
                                            [car_model] => 
                                            [car_year] => 
                                            [car_color] => 
                                            [car_model_image] => 
                                            [car_type_id] => 31
                                            [car_model_status] => 1
                                        )

                                )

                        )

                )

        )

    [2] => Array
        (
            [service_id] => 4
            [service_name] => U L T R A
            [car_Type] => Array
                (
                    [0] => Array
                        (
                            [advance_booking] => 1
                            [advance_booking_time] => 2:00 
                            [car_description] => Black SUV & Mini Limo
                            [car_type_id] => 33
                            [car_type_name] => UXCab
                            [car_type_image] => uploads/car/car_33.png
                            [city_id] => 56
                            [base_fare] => No Driver
                            [ride_mode] => 1
                            [currency_iso_code] => AUD
                            [currency_unicode] => 0024
                            [car_mode] => Array
                                (
                                    [0] => Array
                                        (
                                            [car_model_id] => 50
                                            [car_model_name] => yamaha
                                            [car_model_name_arabic] => 
                                            [car_model_name_french] => 
                                            [car_make] => yamaha
                                            [car_model] => 
                                            [car_year] => 
                                            [car_color] => 
                                            [car_model_image] => 
                                            [car_type_id] => 33
                                            [car_model_status] => 1
                                        )

                                )

                        )

                )

        )

    [3] => Array
        (
            [service_id] => 5
            [service_name] => Wheelchair A C C E S S
            [car_Type] => Array
                (
                    [0] => Array
                        (
                            [advance_booking] => 0
                            [advance_booking_time] => 
                            [car_description] => Whellchair Accessible
                            [car_type_id] => 34
                            [car_type_name] => Wheel Access
                            [car_type_image] => uploads/car/car_34.png
                            [city_id] => 56
                            [base_fare] => No Driver
                            [ride_mode] => 1
                            [currency_iso_code] => AUD
                            [currency_unicode] => 0024
                            [car_mode] => Array
                                (
                                    [0] => Array
                                        (
                                            [car_model_id] => 51
                                            [car_model_name] => Tesla
                                            [car_model_name_arabic] => 
                                            [car_model_name_french] => 
                                            [car_make] => Tesla
                                            [car_model] => 
                                            [car_year] => 
                                            [car_color] => 
                                            [car_model_image] => 
                                            [car_type_id] => 34
                                            [car_model_status] => 1
                                        )

                                )

                        )

                )

        )

)

city_name: Gurugram
latitude: 28.41233851334903
longitude: 77.04345993697642
-------------------------
Rental - Car Type Api: November 15, 2017, 1:09 pm
Response: Array
(
    [0] => Array
        (
            [service_id] => 2
            [service_name] => E C O N O M Y
            [car_Type] => Array
                (
                    [0] => Array
                        (
                            [advance_booking] => 0
                            [advance_booking_time] => 
                            [car_description] => Economy Compacts
                            [car_type_id] => 28
                            [car_type_name] => ECab
                            [car_type_image] => uploads/car/car_28.png
                            [city_id] => 56
                            [base_fare] => No Driver
                            [ride_mode] => 1
                            [currency_iso_code] => AUD
                            [currency_unicode] => 0024
                            [car_mode] => Array
                                (
                                    [0] => Array
                                        (
                                            [car_model_id] => 45
                                            [car_model_name] => Suzuki
                                            [car_model_name_arabic] => 
                                            [car_model_name_french] => 
                                            [car_make] => Suzuki
                                            [car_model] => 
                                            [car_year] => 
                                            [car_color] => 
                                            [car_model_image] => 
                                            [car_type_id] => 28
                                            [car_model_status] => 1
                                        )

                                )

                        )

                    [1] => Array
                        (
                            [advance_booking] => 0
                            [advance_booking_time] => 
                            [car_description] => Standrad Full Size
                            [car_type_id] => 29
                            [car_type_name] => SCab
                            [car_type_image] => uploads/car/car_29.png
                            [city_id] => 56
                            [base_fare] => No Driver
                            [ride_mode] => 1
                            [currency_iso_code] => AUD
                            [currency_unicode] => 0024
                            [car_mode] => Array
                                (
                                    [0] => Array
                                        (
                                            [car_model_id] => 46
                                            [car_model_name] => Ferrari
                                            [car_model_name_arabic] => 
                                            [car_model_name_french] => 
                                            [car_make] => Ferrari
                                            [car_model] => 
                                            [car_year] => 
                                            [car_color] => 
                                            [car_model_image] => 
                                            [car_type_id] => 29
                                            [car_model_status] => 1
                                        )

                                )

                        )

                )

        )

    [1] => Array
        (
            [service_id] => 3
            [service_name] => P R E M I U M  L I N E
            [car_Type] => Array
                (
                    [0] => Array
                        (
                            [advance_booking] => 0
                            [advance_booking_time] => 
                            [car_description] => SUV and Minivan
                            [car_type_id] => 30
                            [car_type_name] => XCab
                            [car_type_image] => uploads/car/car_30.png
                            [city_id] => 56
                            [base_fare] => No Driver
                            [ride_mode] => 1
                            [currency_iso_code] => AUD
                            [currency_unicode] => 0024
                            [car_mode] => Array
                                (
                                    [0] => Array
                                        (
                                            [car_model_id] => 48
                                            [car_model_name] => Mercedes
                                            [car_model_name_arabic] => 
                                            [car_model_name_french] => 
                                            [car_make] => Mercedes
                                            [car_model] => 
                                            [car_year] => 
                                            [car_color] => 
                                            [car_model_image] => 
                                            [car_type_id] => 30
                                            [car_model_status] => 1
                                        )

                                )

                        )

                    [1] => Array
                        (
                            [advance_booking] => 0
                            [advance_booking_time] => 
                            [car_description] => Luxury full Size
                            [car_type_id] => 31
                            [car_type_name] => LXCab
                            [car_type_image] => uploads/car/car_31.png
                            [city_id] => 56
                            [base_fare] => 5 Per 10 Miles
                            [ride_mode] => 1
                            [currency_iso_code] => AUD
                            [currency_unicode] => 0024
                            [car_mode] => Array
                                (
                                    [0] => Array
                                        (
                                            [car_model_id] => 49
                                            [car_model_name] => taxi
                                            [car_model_name_arabic] => 
                                            [car_model_name_french] => 
                                            [car_make] => taxi
                                            [car_model] => 
                                            [car_year] => 
                                            [car_color] => 
                                            [car_model_image] => 
                                            [car_type_id] => 31
                                            [car_model_status] => 1
                                        )

                                )

                        )

                )

        )

    [2] => Array
        (
            [service_id] => 4
            [service_name] => U L T R A
            [car_Type] => Array
                (
                    [0] => Array
                        (
                            [advance_booking] => 1
                            [advance_booking_time] => 2:00 
                            [car_description] => Black SUV & Mini Limo
                            [car_type_id] => 33
                            [car_type_name] => UXCab
                            [car_type_image] => uploads/car/car_33.png
                            [city_id] => 56
                            [base_fare] => No Driver
                            [ride_mode] => 1
                            [currency_iso_code] => AUD
                            [currency_unicode] => 0024
                            [car_mode] => Array
                                (
                                    [0] => Array
                                        (
                                            [car_model_id] => 50
                                            [car_model_name] => yamaha
                                            [car_model_name_arabic] => 
                                            [car_model_name_french] => 
                                            [car_make] => yamaha
                                            [car_model] => 
                                            [car_year] => 
                                            [car_color] => 
                                            [car_model_image] => 
                                            [car_type_id] => 33
                                            [car_model_status] => 1
                                        )

                                )

                        )

                )

        )

    [3] => Array
        (
            [service_id] => 5
            [service_name] => Wheelchair A C C E S S
            [car_Type] => Array
                (
                    [0] => Array
                        (
                            [advance_booking] => 0
                            [advance_booking_time] => 
                            [car_description] => Whellchair Accessible
                            [car_type_id] => 34
                            [car_type_name] => Wheel Access
                            [car_type_image] => uploads/car/car_34.png
                            [city_id] => 56
                            [base_fare] => No Driver
                            [ride_mode] => 1
                            [currency_iso_code] => AUD
                            [currency_unicode] => 0024
                            [car_mode] => Array
                                (
                                    [0] => Array
                                        (
                                            [car_model_id] => 51
                                            [car_model_name] => Tesla
                                            [car_model_name_arabic] => 
                                            [car_model_name_french] => 
                                            [car_make] => Tesla
                                            [car_model] => 
                                            [car_year] => 
                                            [car_color] => 
                                            [car_model_image] => 
                                            [car_type_id] => 34
                                            [car_model_status] => 1
                                        )

                                )

                        )

                )

        )

)

city_name: Gurugram
latitude: 28.412287202334063
longitude: 77.04341266304255
-------------------------
Rental - Car Type Api: November 15, 2017, 2:36 pm
Response: Array
(
    [0] => Array
        (
            [service_id] => 2
            [service_name] => E C O N O M Y
            [car_Type] => Array
                (
                    [0] => Array
                        (
                            [advance_booking] => 0
                            [advance_booking_time] => 
                            [car_description] => Economy Compacts
                            [car_type_id] => 28
                            [car_type_name] => ECab
                            [car_type_image] => uploads/car/car_28.png
                            [city_id] => 56
                            [base_fare] => No Driver
                            [ride_mode] => 1
                            [currency_iso_code] => AUD
                            [currency_unicode] => 0024
                            [car_mode] => Array
                                (
                                    [0] => Array
                                        (
                                            [car_model_id] => 45
                                            [car_model_name] => Suzuki
                                            [car_model_name_arabic] => 
                                            [car_model_name_french] => 
                                            [car_make] => Suzuki
                                            [car_model] => 
                                            [car_year] => 
                                            [car_color] => 
                                            [car_model_image] => 
                                            [car_type_id] => 28
                                            [car_model_status] => 1
                                        )

                                )

                        )

                    [1] => Array
                        (
                            [advance_booking] => 0
                            [advance_booking_time] => 
                            [car_description] => Standrad Full Size
                            [car_type_id] => 29
                            [car_type_name] => SCab
                            [car_type_image] => uploads/car/car_29.png
                            [city_id] => 56
                            [base_fare] => No Driver
                            [ride_mode] => 1
                            [currency_iso_code] => AUD
                            [currency_unicode] => 0024
                            [car_mode] => Array
                                (
                                    [0] => Array
                                        (
                                            [car_model_id] => 46
                                            [car_model_name] => Ferrari
                                            [car_model_name_arabic] => 
                                            [car_model_name_french] => 
                                            [car_make] => Ferrari
                                            [car_model] => 
                                            [car_year] => 
                                            [car_color] => 
                                            [car_model_image] => 
                                            [car_type_id] => 29
                                            [car_model_status] => 1
                                        )

                                )

                        )

                )

        )

    [1] => Array
        (
            [service_id] => 3
            [service_name] => P R E M I U M  L I N E
            [car_Type] => Array
                (
                    [0] => Array
                        (
                            [advance_booking] => 0
                            [advance_booking_time] => 
                            [car_description] => SUV and Minivan
                            [car_type_id] => 30
                            [car_type_name] => XCab
                            [car_type_image] => uploads/car/car_30.png
                            [city_id] => 56
                            [base_fare] => No Driver
                            [ride_mode] => 1
                            [currency_iso_code] => AUD
                            [currency_unicode] => 0024
                            [car_mode] => Array
                                (
                                    [0] => Array
                                        (
                                            [car_model_id] => 48
                                            [car_model_name] => Mercedes
                                            [car_model_name_arabic] => 
                                            [car_model_name_french] => 
                                            [car_make] => Mercedes
                                            [car_model] => 
                                            [car_year] => 
                                            [car_color] => 
                                            [car_model_image] => 
                                            [car_type_id] => 30
                                            [car_model_status] => 1
                                        )

                                )

                        )

                    [1] => Array
                        (
                            [advance_booking] => 0
                            [advance_booking_time] => 
                            [car_description] => Luxury full Size
                            [car_type_id] => 31
                            [car_type_name] => LXCab
                            [car_type_image] => uploads/car/car_31.png
                            [city_id] => 56
                            [base_fare] => 5 Per 10 Miles
                            [ride_mode] => 1
                            [currency_iso_code] => AUD
                            [currency_unicode] => 0024
                            [car_mode] => Array
                                (
                                    [0] => Array
                                        (
                                            [car_model_id] => 49
                                            [car_model_name] => taxi
                                            [car_model_name_arabic] => 
                                            [car_model_name_french] => 
                                            [car_make] => taxi
                                            [car_model] => 
                                            [car_year] => 
                                            [car_color] => 
                                            [car_model_image] => 
                                            [car_type_id] => 31
                                            [car_model_status] => 1
                                        )

                                )

                        )

                )

        )

    [2] => Array
        (
            [service_id] => 4
            [service_name] => U L T R A
            [car_Type] => Array
                (
                    [0] => Array
                        (
                            [advance_booking] => 1
                            [advance_booking_time] => 2:00 
                            [car_description] => Black SUV & Mini Limo
                            [car_type_id] => 33
                            [car_type_name] => UXCab
                            [car_type_image] => uploads/car/car_33.png
                            [city_id] => 56
                            [base_fare] => No Driver
                            [ride_mode] => 1
                            [currency_iso_code] => AUD
                            [currency_unicode] => 0024
                            [car_mode] => Array
                                (
                                    [0] => Array
                                        (
                                            [car_model_id] => 50
                                            [car_model_name] => yamaha
                                            [car_model_name_arabic] => 
                                            [car_model_name_french] => 
                                            [car_make] => yamaha
                                            [car_model] => 
                                            [car_year] => 
                                            [car_color] => 
                                            [car_model_image] => 
                                            [car_type_id] => 33
                                            [car_model_status] => 1
                                        )

                                )

                        )

                )

        )

    [3] => Array
        (
            [service_id] => 5
            [service_name] => Wheelchair A C C E S S
            [car_Type] => Array
                (
                    [0] => Array
                        (
                            [advance_booking] => 0
                            [advance_booking_time] => 
                            [car_description] => Whellchair Accessible
                            [car_type_id] => 34
                            [car_type_name] => Wheel Access
                            [car_type_image] => uploads/car/car_34.png
                            [city_id] => 56
                            [base_fare] => No Driver
                            [ride_mode] => 1
                            [currency_iso_code] => AUD
                            [currency_unicode] => 0024
                            [car_mode] => Array
                                (
                                    [0] => Array
                                        (
                                            [car_model_id] => 51
                                            [car_model_name] => Tesla
                                            [car_model_name_arabic] => 
                                            [car_model_name_french] => 
                                            [car_make] => Tesla
                                            [car_model] => 
                                            [car_year] => 
                                            [car_color] => 
                                            [car_model_image] => 
                                            [car_type_id] => 34
                                            [car_model_status] => 1
                                        )

                                )

                        )

                )

        )

)

city_name: Gurugram
latitude: 28.412324358588755
longitude: 77.04344686120749
-------------------------
Rental - Car Type Api: November 15, 2017, 2:49 pm
Response: Array
(
    [0] => Array
        (
            [service_id] => 2
            [service_name] => E C O N O M Y
            [car_Type] => Array
                (
                    [0] => Array
                        (
                            [advance_booking] => 0
                            [advance_booking_time] => 
                            [car_description] => Economy Compacts
                            [car_type_id] => 28
                            [car_type_name] => ECab
                            [car_type_image] => uploads/car/car_28.png
                            [city_id] => 56
                            [base_fare] => No Driver
                            [ride_mode] => 1
                            [currency_iso_code] => AUD
                            [currency_unicode] => 0024
                            [car_mode] => Array
                                (
                                    [0] => Array
                                        (
                                            [car_model_id] => 45
                                            [car_model_name] => Suzuki
                                            [car_model_name_arabic] => 
                                            [car_model_name_french] => 
                                            [car_make] => Suzuki
                                            [car_model] => 
                                            [car_year] => 
                                            [car_color] => 
                                            [car_model_image] => 
                                            [car_type_id] => 28
                                            [car_model_status] => 1
                                        )

                                )

                        )

                    [1] => Array
                        (
                            [advance_booking] => 0
                            [advance_booking_time] => 
                            [car_description] => Standrad Full Size
                            [car_type_id] => 29
                            [car_type_name] => SCab
                            [car_type_image] => uploads/car/car_29.png
                            [city_id] => 56
                            [base_fare] => No Driver
                            [ride_mode] => 1
                            [currency_iso_code] => AUD
                            [currency_unicode] => 0024
                            [car_mode] => Array
                                (
                                    [0] => Array
                                        (
                                            [car_model_id] => 46
                                            [car_model_name] => Ferrari
                                            [car_model_name_arabic] => 
                                            [car_model_name_french] => 
                                            [car_make] => Ferrari
                                            [car_model] => 
                                            [car_year] => 
                                            [car_color] => 
                                            [car_model_image] => 
                                            [car_type_id] => 29
                                            [car_model_status] => 1
                                        )

                                )

                        )

                )

        )

    [1] => Array
        (
            [service_id] => 3
            [service_name] => P R E M I U M  L I N E
            [car_Type] => Array
                (
                    [0] => Array
                        (
                            [advance_booking] => 0
                            [advance_booking_time] => 
                            [car_description] => SUV and Minivan
                            [car_type_id] => 30
                            [car_type_name] => XCab
                            [car_type_image] => uploads/car/car_30.png
                            [city_id] => 56
                            [base_fare] => No Driver
                            [ride_mode] => 1
                            [currency_iso_code] => AUD
                            [currency_unicode] => 0024
                            [car_mode] => Array
                                (
                                    [0] => Array
                                        (
                                            [car_model_id] => 48
                                            [car_model_name] => Mercedes
                                            [car_model_name_arabic] => 
                                            [car_model_name_french] => 
                                            [car_make] => Mercedes
                                            [car_model] => 
                                            [car_year] => 
                                            [car_color] => 
                                            [car_model_image] => 
                                            [car_type_id] => 30
                                            [car_model_status] => 1
                                        )

                                )

                        )

                    [1] => Array
                        (
                            [advance_booking] => 0
                            [advance_booking_time] => 
                            [car_description] => Luxury full Size
                            [car_type_id] => 31
                            [car_type_name] => LXCab
                            [car_type_image] => uploads/car/car_31.png
                            [city_id] => 56
                            [base_fare] => 5 Per 10 Miles
                            [ride_mode] => 1
                            [currency_iso_code] => AUD
                            [currency_unicode] => 0024
                            [car_mode] => Array
                                (
                                    [0] => Array
                                        (
                                            [car_model_id] => 49
                                            [car_model_name] => taxi
                                            [car_model_name_arabic] => 
                                            [car_model_name_french] => 
                                            [car_make] => taxi
                                            [car_model] => 
                                            [car_year] => 
                                            [car_color] => 
                                            [car_model_image] => 
                                            [car_type_id] => 31
                                            [car_model_status] => 1
                                        )

                                )

                        )

                )

        )

    [2] => Array
        (
            [service_id] => 4
            [service_name] => U L T R A
            [car_Type] => Array
                (
                    [0] => Array
                        (
                            [advance_booking] => 1
                            [advance_booking_time] => 2:00 
                            [car_description] => Black SUV & Mini Limo
                            [car_type_id] => 33
                            [car_type_name] => UXCab
                            [car_type_image] => uploads/car/car_33.png
                            [city_id] => 56
                            [base_fare] => No Driver
                            [ride_mode] => 1
                            [currency_iso_code] => AUD
                            [currency_unicode] => 0024
                            [car_mode] => Array
                                (
                                    [0] => Array
                                        (
                                            [car_model_id] => 50
                                            [car_model_name] => yamaha
                                            [car_model_name_arabic] => 
                                            [car_model_name_french] => 
                                            [car_make] => yamaha
                                            [car_model] => 
                                            [car_year] => 
                                            [car_color] => 
                                            [car_model_image] => 
                                            [car_type_id] => 33
                                            [car_model_status] => 1
                                        )

                                )

                        )

                )

        )

    [3] => Array
        (
            [service_id] => 5
            [service_name] => Wheelchair A C C E S S
            [car_Type] => Array
                (
                    [0] => Array
                        (
                            [advance_booking] => 0
                            [advance_booking_time] => 
                            [car_description] => Whellchair Accessible
                            [car_type_id] => 34
                            [car_type_name] => Wheel Access
                            [car_type_image] => uploads/car/car_34.png
                            [city_id] => 56
                            [base_fare] => No Driver
                            [ride_mode] => 1
                            [currency_iso_code] => AUD
                            [currency_unicode] => 0024
                            [car_mode] => Array
                                (
                                    [0] => Array
                                        (
                                            [car_model_id] => 51
                                            [car_model_name] => Tesla
                                            [car_model_name_arabic] => 
                                            [car_model_name_french] => 
                                            [car_make] => Tesla
                                            [car_model] => 
                                            [car_year] => 
                                            [car_color] => 
                                            [car_model_image] => 
                                            [car_type_id] => 34
                                            [car_model_status] => 1
                                        )

                                )

                        )

                )

        )

)

city_name: Gurugram
latitude: 28.412323768807028
longitude: 77.04342875629663
-------------------------
