car by city api -: November 7, 2017, 10:55 pm
Response: {"result":1,"msg":"0.00209708838102","details":{"ride_id":"24","user_id":"5","coupon_code":"","pickup_lat":"37.694088128754885","pickup_long":"-121.93272661417723","pickup_location":"113, 5820 Stoneridge Mall Rd, Pleasanton, CA 94588, USA","drop_lat":"37.6213129","drop_long":"-122.37895540000001","drop_location":"San Francisco International Airport","ride_date":"Tuesday, Nov 7","ride_time":"22:55:54","last_time_stamp":"10:55:54 PM","ride_image":"https:maps.googleapis.com\/maps\/api\/staticmap?center=&zoom=12&size=200x200&maptype=roadmap&markers=color:green|label:S|37.694088128754885,-121.93272661417723&markers=color:red|label:D|37.6213129,-122.37895540000001&key=AIzaSyAIFe17P91Mfez3T6cqk7hfDSyvMO812Z4","later_date":"","later_time":"","driver_id":"0","city_id":"0","car_type_id":"31","ride_type":"1","pem_file":"1","ride_status":"1","payment_status":"0","reason_id":"0","payment_option_id":"1","card_id":"0","ride_platform":"1","ride_admin_status":"1","date":"2017-11-07"}}
drop_lat: 37.6213129
drop_long: -122.37895540000001
drop_location: San Francisco International Airport
car_type_id:31
user_id:5
coupon_code :
pickup_lat : 37.694088128754885
pickup_long : -121.93272661417723
pickup_location :113, 5820 Stoneridge Mall Rd, Pleasanton, CA 94588, USA
payment_option_id :1
card_id :
pem_file :1
-------------------------
Ride Accept api -: November 7, 2017, 10:56 pm
Response: {"result":1,"msg":"Booking Accepted!!","details":{"ride_id":"24","user_id":"5","coupon_code":"","pickup_lat":"37.694088128754885","pickup_long":"-121.93272661417723","pickup_location":"113, 5820 Stoneridge Mall Rd, Pleasanton, CA 94588, USA","drop_lat":"37.6213129","drop_long":"-122.37895540000001","drop_location":"San Francisco International Airport","ride_date":"Tuesday, Nov 7","ride_time":"22:55:54","last_time_stamp":"10:56:00 PM","ride_image":"https:maps.googleapis.com\/maps\/api\/staticmap?center=&zoom=12&size=200x200&maptype=roadmap&markers=color:green|label:S|37.694088128754885,-121.93272661417723&markers=color:red|label:D|37.6213129,-122.37895540000001&key=AIzaSyAIFe17P91Mfez3T6cqk7hfDSyvMO812Z4","later_date":"","later_time":"","driver_id":"4","city_id":"130","car_type_id":"31","ride_type":"1","pem_file":"1","ride_status":"3","payment_status":"0","reason_id":"0","payment_option_id":"1","card_id":"0","ride_platform":"1","ride_admin_status":"1","date":"2017-11-07","user_type":"1","user_name":"fareed .","user_email":"fred.wardak@smarttaxiweb.com","user_phone":"+19254782600","user_password":"cTaxi","user_image":"","user_location":"","device_id":"ekKpjXM1mYw:APA91bHInFaiXzkJ_y2YkTqtZeBWmmab9iD9W8v4CbA2_fKwOa8TB5HfrhO-_Q8LIafvLACfFdbyzEXvXPnGtg5YNjYf8LHzP7Hu3_7lhJe_C1jhZguSb8iuEskotkbRJCvYi7hJhaZ-","flag":"2","wallet_money":"0","register_date":"Thursday, Nov 2","referral_code":"","free_rides":"0","referral_code_send":"0","phone_verified":"0","email_verified":"0","password_created":"0","facebook_id":"","facebook_mail":"","facebook_image":"","facebook_firstname":"","facebook_lastname":"","google_id":"","google_name":"","google_mail":"","google_image":"","google_token":"","facebook_token":"","token_created":"0","login_logout":"1","rating":"5","user_delete":"0","unique_number":"","user_signup_type":"1","user_signup_date":"2017-11-01","status":"1","service_id":"3","car_type_name":"LXCab","car_description":"Luxury full Size","car_name_arabic":"","car_type_name_french":"","car_type_image":"uploads\/car\/car_31.png","cartype_image_size":"190446","advance_booking":"0","advance_booking_time":"","cartype_big_image":"","ride_mode":"1","car_admin_status":"1","company_id":"0","commission":"10","driver_name":"mark","driver_email":"fred.wardak@gmail.com","driver_phone":"15104002000","driver_image":"","driver_password":"mark1234","driver_token":"xWtoEbG3AVz2ganA","total_payment_eraned":"87.47","company_payment":"9.73","driver_payment":"","car_model_id":"49","car_number":"289","license":"","license_expire":"","rc":"","rc_expire":"","insurance":"","insurance_expire":"","other_docs":"","driver_bank_name":"","driver_account_number":"","total_card_payment":"0.00","total_cash_payment":"0.00","amount_transfer_pending":"0.00","current_lat":"37.6940772","current_long":"-121.9327072","current_location":"----","last_update":"22:56","last_update_date":"Tuesday, Nov 7, 2017","completed_rides":"3","reject_rides":"1","cancelled_rides":"6","busy":"1","online_offline":"1","detail_status":"2","payment_transfer":"0","verification_date":"","verification_status":"1","driver_signup_date":"2017-11-02","driver_status_image":"http:\/\/www.apporiotaxi.com\/superadminpanel\/images\/icons8-Error-80.png","driver_status_message":"your document id in under process, You will be notified very soon","total_document_need":"3","driver_admin_status":"1","verfiy_document":"0"}}
ride_id: 24
driver_id: 4
driver_token: xWtoEbG3AVz2ganA
-------------------------
