car by city api -: October 28, 2017, 5:36 am
Response: {"result":1,"msg":[{"car_type_id":"2","car_type_name":"HATCHBACK","car_name_arabic":"","car_type_name_french":"HATCHBACK","car_type_image":"uploads\/car\/editcar_2.png","cartype_image_size":"","cartype_big_image":"webstatic\/img\/fleet-image\/prime-play.png","ride_mode":"1","car_admin_status":"1","city_id":"56"},{"car_type_id":"3","car_type_name":"LUXURY","car_name_arabic":"","car_type_name_french":"LUXURY","car_type_image":"uploads\/car\/editcar_3.png","cartype_image_size":"","cartype_big_image":"webstatic\/img\/fleet-image\/lux.png","ride_mode":"1","car_admin_status":"1","city_id":"56"},{"car_type_id":"4","car_type_name":"Mini","car_name_arabic":"","car_type_name_french":"Mini","car_type_image":"uploads\/car\/editcar_4.png","cartype_image_size":"","cartype_big_image":"webstatic\/img\/fleet-image\/mini.png","ride_mode":"1","car_admin_status":"1","city_id":"56"}]}
city_id: 56
-------------------------
Driver App - Login driver Api: October 28, 2017, 5:38 am
Response: Array
(
    [driver_id] => 2
    [company_id] => 0
    [commission] => 4
    [driver_name] => sahil
    [driver_email] => sahil@gmail.com
    [driver_phone] => 9797546446
    [driver_image] => 
    [driver_password] => 123456
    [driver_token] => yjRJUIt1hEpgwpUK
    [total_payment_eraned] => 0
    [company_payment] => 0
    [driver_payment] => 
    [device_id] => 
    [flag] => 0
    [rating] => 
    [car_type_id] => 2
    [car_model_id] => 3
    [car_number] => 123456
    [city_id] => 56
    [register_date] => Saturday, Oct 28
    [license] => 
    [license_expire] => 
    [rc] => 
    [rc_expire] => 
    [insurance] => 
    [insurance_expire] => 
    [other_docs] => 
    [driver_bank_name] => 
    [driver_account_number] => 
    [total_card_payment] => 0.00
    [total_cash_payment] => 0.00
    [amount_transfer_pending] => 0.00
    [current_lat] => 
    [current_long] => 
    [current_location] => 
    [last_update] => 
    [last_update_date] => 
    [completed_rides] => 0
    [reject_rides] => 0
    [cancelled_rides] => 0
    [login_logout] => 1
    [busy] => 0
    [online_offline] => 0
    [detail_status] => 2
    [payment_transfer] => 0
    [verification_date] => 
    [verification_status] => 1
    [unique_number] => 
    [driver_signup_date] => 2017-10-28
    [driver_status_image] => http://www.apporiotaxi.com/superadminpanel/images/icons8-Error-80.png
    [driver_status_message] => your document id in under process, You will be notified very soon
    [total_document_need] => 3
    [driver_admin_status] => 1
    [verfiy_document] => 0
    [city_name] => Gurugram
    [city_latitude] => 
    [city_longitude] => 
    [currency_id] => 16
    [currency] => &#x24;
    [currency_iso_code] => AUD
    [currency_unicode] => 0024
    [distance] => Miles
    [city_name_arabic] => 
    [city_name_french] => 
    [city_admin_status] => 1
    [car_type_name] => HATCHBACK
    [car_model_name] => Nano
)

driver_email_phone: 9797546446
driver_password: 123456
-------------------------
car by city api -: October 28, 2017, 5:45 am
Response: {"result":1,"msg":"0.00314992695246","details":{"ride_id":"1","user_id":"1","coupon_code":"","pickup_lat":"28.412346180510045","pickup_long":"77.0433922111988","pickup_location":"IRIS Tech Park, Sector 49, Gurugram, Haryana 122018, India","drop_lat":"28.4592693","drop_long":"77.0724192","drop_location":"Huda Metro Station","ride_date":"Saturday, Oct 28","ride_time":"05:45:00","last_time_stamp":"05:45:00 AM","ride_image":"https:maps.googleapis.com\/maps\/api\/staticmap?center=&zoom=12&size=200x200&maptype=roadmap&markers=color:green|label:S|28.412346180510045,77.0433922111988&markers=color:red|label:D|28.4592693,77.0724192&key=AIzaSyAIFe17P91Mfez3T6cqk7hfDSyvMO812Z4","later_date":"","later_time":"","driver_id":"0","city_id":"0","car_type_id":"2","ride_type":"1","pem_file":"1","ride_status":"1","payment_status":"0","reason_id":"0","payment_option_id":"1","card_id":"0","ride_platform":"1","ride_admin_status":"1","date":"2017-10-28"}}
drop_lat: 28.4592693
drop_long: 77.0724192
drop_location: Huda Metro Station
car_type_id:2
user_id:1
coupon_code :
pickup_lat : 28.412346180510045
pickup_long : 77.0433922111988
pickup_location :IRIS Tech Park, Sector 49, Gurugram, Haryana 122018, India
payment_option_id :1
card_id :
pem_file :1
-------------------------
car by city api -: October 28, 2017, 5:50 am
Response: {"result":1,"msg":"0","details":{"ride_id":"2","user_id":"1","coupon_code":"","pickup_lat":"28.412346180510045","pickup_long":"77.0433922111988","pickup_location":"IRIS Tech Park, Sector 49, Gurugram, Haryana 122018, India","drop_lat":"28.4592693","drop_long":"77.0724192","drop_location":"Huda Metro Station","ride_date":"Saturday, Oct 28","ride_time":"05:50:42","last_time_stamp":"05:50:42 AM","ride_image":"https:maps.googleapis.com\/maps\/api\/staticmap?center=&zoom=12&size=200x200&maptype=roadmap&markers=color:green|label:S|28.412346180510045,77.0433922111988&markers=color:red|label:D|28.4592693,77.0724192&key=AIzaSyAIFe17P91Mfez3T6cqk7hfDSyvMO812Z4","later_date":"","later_time":"","driver_id":"0","city_id":"0","car_type_id":"2","ride_type":"1","pem_file":"1","ride_status":"1","payment_status":"0","reason_id":"0","payment_option_id":"1","card_id":"0","ride_platform":"1","ride_admin_status":"1","date":"2017-10-28"}}
drop_lat: 28.4592693
drop_long: 77.0724192
drop_location: Huda Metro Station
car_type_id:2
user_id:1
coupon_code :
pickup_lat : 28.412346180510045
pickup_long : 77.0433922111988
pickup_location :IRIS Tech Park, Sector 49, Gurugram, Haryana 122018, India
payment_option_id :1
card_id :
pem_file :1
-------------------------
Ride Accept api -: October 28, 2017, 5:50 am
Response: {"result":1,"msg":"Booking Accepted!!","details":{"ride_id":"2","user_id":"1","coupon_code":"","pickup_lat":"28.412346180510045","pickup_long":"77.0433922111988","pickup_location":"IRIS Tech Park, Sector 49, Gurugram, Haryana 122018, India","drop_lat":"28.4592693","drop_long":"77.0724192","drop_location":"Huda Metro Station","ride_date":"Saturday, Oct 28","ride_time":"05:50:42","last_time_stamp":"05:50:45 AM","ride_image":"https:maps.googleapis.com\/maps\/api\/staticmap?center=&zoom=12&size=200x200&maptype=roadmap&markers=color:green|label:S|28.412346180510045,77.0433922111988&markers=color:red|label:D|28.4592693,77.0724192&key=AIzaSyAIFe17P91Mfez3T6cqk7hfDSyvMO812Z4","later_date":"","later_time":"","driver_id":"2","city_id":"56","car_type_id":"2","ride_type":"1","pem_file":"1","ride_status":"3","payment_status":"0","reason_id":"0","payment_option_id":"1","card_id":"0","ride_platform":"1","ride_admin_status":"1","date":"2017-10-28","user_type":"1","user_name":"vishal .","user_email":"vishal@apporio.com","user_phone":"+918950368358","user_password":"123456","user_image":"","device_id":"dsc_mAxNHp8:APA91bE8qyyCKx_Ol7u4b6elPOFgdWw_qFxufBhPaOoLG6DDb09mAjmwO5dgNJ6sbyeAkLvpCrFNxOMKUbftTFZ4YoCAFK41cbCCkxCRvc5DJAm307dNjV18oq-Ijmz2EEzQC2o_j41A","flag":"2","wallet_money":"0","register_date":"Saturday, Oct 28","referral_code":"","free_rides":"0","referral_code_send":"0","phone_verified":"0","email_verified":"0","password_created":"0","facebook_id":"","facebook_mail":"","facebook_image":"","facebook_firstname":"","facebook_lastname":"","google_id":"","google_name":"","google_mail":"","google_image":"","google_token":"","facebook_token":"","token_created":"0","login_logout":"1","rating":"","user_delete":"0","unique_number":"","user_signup_type":"1","user_signup_date":"2017-10-27","status":"1","car_type_name":"HATCHBACK","car_name_arabic":"","car_type_name_french":"HATCHBACK","car_type_image":"uploads\/car\/editcar_2.png","cartype_image_size":"","cartype_big_image":"webstatic\/img\/fleet-image\/prime-play.png","ride_mode":"1","car_admin_status":"1","company_id":"0","commission":"4","driver_name":"sahil","driver_email":"sahil@gmail.com","driver_phone":"9797546446","driver_image":"","driver_password":"123456","driver_token":"yjRJUIt1hEpgwpUK","total_payment_eraned":"0","company_payment":"0","driver_payment":"","car_model_id":"3","car_number":"123456","license":"","license_expire":"","rc":"","rc_expire":"","insurance":"","insurance_expire":"","other_docs":"","driver_bank_name":"","driver_account_number":"","total_card_payment":"0.00","total_cash_payment":"0.00","amount_transfer_pending":"0.00","current_lat":"28.4123461","current_long":"77.0433922","current_location":"----","last_update":"05:50","last_update_date":"Saturday, Oct 28, 2017","completed_rides":"0","reject_rides":"0","cancelled_rides":"0","busy":"1","online_offline":"1","detail_status":"2","payment_transfer":"0","verification_date":"","verification_status":"1","driver_signup_date":"2017-10-28","driver_status_image":"http:\/\/www.apporiotaxi.com\/superadminpanel\/images\/icons8-Error-80.png","driver_status_message":"your document id in under process, You will be notified very soon","total_document_need":"3","driver_admin_status":"1","verfiy_document":"0"}}
ride_id: 2
driver_id: 2
driver_token: yjRJUIt1hEpgwpUK
-------------------------
ride end Api - : October 28, 2017, 5:51 am
ride_id: 
driver_id: 
end_lat: 
end_long: 
meter_distance: 
lat_long: 
response: {"result":0,"msg":"Required fields missing!!"}
-------------------------
ride end Api - : October 28, 2017, 5:51 am
ride_id: 2
driver_id: 2
end_lat: 28.4122853
end_long: 77.0434596
meter_distance: 0.0
lat_long: 
response: {"result":1,"msg":"Ride Has been Ended","details":{"done_ride_id":"1","ride_id":"2","begin_lat":"28.4122853","begin_long":"77.0434596","end_lat":"28.4122853","end_long":"77.0434596","begin_location":"322B, Sohna Rd, Sector 49, Gurugram, Haryana 122018, India","end_location":"322B, Sohna Rd, Sector 49, Gurugram, Haryana 122018, India","arrived_time":"05:50:58 AM","begin_time":"05:51:09 AM","end_time":"05:51:28 AM","waiting_time":"0","waiting_price":"0.00","ride_time_price":"00.00","peak_time_charge":"0.00","night_time_charge":"0.00","coupan_price":"0.00","driver_id":"2","total_amount":"10","company_commision":"0.40","driver_amount":"9.60","amount":"10.00","wallet_deducted_amount":"0.00","distance":"0.00 Miles","meter_distance":"0.0","tot_time":"0","total_payable_amount":"0.00","payment_status":"0","payment_falied_message":"","rating_to_customer":"0","rating_to_driver":"0","done_date":"0000-00-00","payment_option_id":"1"}}
-------------------------
car by city api -: October 28, 2017, 2:06 pm
Response: {"result":1,"msg":"0","details":{"ride_id":"1","user_id":"1","coupon_code":"","pickup_lat":"28.41232583304304","pickup_long":"77.0434146746993","pickup_location":"322B, Sohna Rd, Sector 49, Gurugram, Haryana 122018, India","drop_lat":"28.4592693","drop_long":"77.0724192","drop_location":"Huda Metro Station","ride_date":"Saturday, Oct 28","ride_time":"14:06:44","last_time_stamp":"02:06:44 PM","ride_image":"https:maps.googleapis.com\/maps\/api\/staticmap?center=&zoom=12&size=200x200&maptype=roadmap&markers=color:green|label:S|28.41232583304304,77.0434146746993&markers=color:red|label:D|28.4592693,77.0724192&key=AIzaSyAIFe17P91Mfez3T6cqk7hfDSyvMO812Z4","later_date":"","later_time":"","driver_id":"0","city_id":"0","car_type_id":"2","ride_type":"1","pem_file":"1","ride_status":"1","payment_status":"0","reason_id":"0","payment_option_id":"1","card_id":"0","ride_platform":"1","ride_admin_status":"1","date":"2017-10-28"}}
drop_lat: 28.4592693
drop_long: 77.0724192
drop_location: Huda Metro Station
car_type_id:2
user_id:1
coupon_code :
pickup_lat : 28.41232583304304
pickup_long : 77.0434146746993
pickup_location :322B, Sohna Rd, Sector 49, Gurugram, Haryana 122018, India
payment_option_id :1
card_id :
pem_file :1
-------------------------
Ride Accept api -: October 28, 2017, 2:06 pm
Response: {"result":1,"msg":"Booking Accepted!!","details":{"ride_id":"1","user_id":"1","coupon_code":"","pickup_lat":"28.41232583304304","pickup_long":"77.0434146746993","pickup_location":"322B, Sohna Rd, Sector 49, Gurugram, Haryana 122018, India","drop_lat":"28.4592693","drop_long":"77.0724192","drop_location":"Huda Metro Station","ride_date":"Saturday, Oct 28","ride_time":"14:06:44","last_time_stamp":"02:06:48 PM","ride_image":"https:maps.googleapis.com\/maps\/api\/staticmap?center=&zoom=12&size=200x200&maptype=roadmap&markers=color:green|label:S|28.41232583304304,77.0434146746993&markers=color:red|label:D|28.4592693,77.0724192&key=AIzaSyAIFe17P91Mfez3T6cqk7hfDSyvMO812Z4","later_date":"","later_time":"","driver_id":"2","city_id":"56","car_type_id":"2","ride_type":"1","pem_file":"1","ride_status":"3","payment_status":"0","reason_id":"0","payment_option_id":"1","card_id":"0","ride_platform":"1","ride_admin_status":"1","date":"2017-10-28","user_type":"1","user_name":"vishal .","user_email":"vishal@apporio.com","user_phone":"+918950368358","user_password":"123456","user_image":"","device_id":"dsc_mAxNHp8:APA91bE8qyyCKx_Ol7u4b6elPOFgdWw_qFxufBhPaOoLG6DDb09mAjmwO5dgNJ6sbyeAkLvpCrFNxOMKUbftTFZ4YoCAFK41cbCCkxCRvc5DJAm307dNjV18oq-Ijmz2EEzQC2o_j41A","flag":"2","wallet_money":"0","register_date":"Saturday, Oct 28","referral_code":"","free_rides":"0","referral_code_send":"0","phone_verified":"0","email_verified":"0","password_created":"0","facebook_id":"","facebook_mail":"","facebook_image":"","facebook_firstname":"","facebook_lastname":"","google_id":"","google_name":"","google_mail":"","google_image":"","google_token":"","facebook_token":"","token_created":"0","login_logout":"1","rating":"","user_delete":"0","unique_number":"","user_signup_type":"1","user_signup_date":"2017-10-27","status":"1","car_type_name":"Economy Class","car_name_arabic":"","car_type_name_french":"HATCHBACK","car_type_image":"uploads\/car\/editcar_2.png","cartype_image_size":"","cartype_big_image":"webstatic\/img\/fleet-image\/prime-play.png","ride_mode":"1","car_admin_status":"1","company_id":"0","commission":"4","driver_name":"sahil","driver_email":"sahil@gmail.com","driver_phone":"9797546446","driver_image":"","driver_password":"123456","driver_token":"yjRJUIt1hEpgwpUK","total_payment_eraned":"0","company_payment":"0","driver_payment":"","car_model_id":"3","car_number":"123456","license":"","license_expire":"","rc":"","rc_expire":"","insurance":"","insurance_expire":"","other_docs":"","driver_bank_name":"","driver_account_number":"","total_card_payment":"0.00","total_cash_payment":"0.00","amount_transfer_pending":"0.00","current_lat":"28.4123259","current_long":"77.0434147","current_location":"----","last_update":"14:06","last_update_date":"Saturday, Oct 28, 2017","completed_rides":"1","reject_rides":"0","cancelled_rides":"0","busy":"1","online_offline":"1","detail_status":"2","payment_transfer":"0","verification_date":"","verification_status":"1","driver_signup_date":"2017-10-28","driver_status_image":"http:\/\/www.apporiotaxi.com\/superadminpanel\/images\/icons8-Error-80.png","driver_status_message":"your document id in under process, You will be notified very soon","total_document_need":"3","driver_admin_status":"1","verfiy_document":"0"}}
ride_id: 1
driver_id: 2
driver_token: yjRJUIt1hEpgwpUK
-------------------------
ride end Api - : October 28, 2017, 2:06 pm
ride_id: 1
driver_id: 2
end_lat: 28.4123259
end_long: 77.0434147
meter_distance: 0.0
lat_long: 
response: {"result":1,"msg":"Ride Has been Ended","details":{"done_ride_id":"1","ride_id":"1","begin_lat":"28.4123259","begin_long":"77.0434147","end_lat":"28.4123259","end_long":"77.0434147","begin_location":"322B, Sohna Rd, Sector 49, Gurugram, Haryana 122018, India","end_location":"322B, Sohna Rd, Sector 49, Gurugram, Haryana 122018, India","arrived_time":"02:06:52 PM","begin_time":"02:06:53 PM","end_time":"02:06:57 PM","waiting_time":"0","waiting_price":"0.00","ride_time_price":"00.00","peak_time_charge":"0.00","night_time_charge":"0.00","coupan_price":"0.00","driver_id":"2","total_amount":"10","company_commision":"0.40","driver_amount":"9.60","amount":"10.00","wallet_deducted_amount":"0.00","distance":"0.00 Miles","meter_distance":"0.0","tot_time":"0","total_payable_amount":"0.00","payment_status":"1","payment_falied_message":"","rating_to_customer":"0","rating_to_driver":"0","done_date":"0000-00-00","payment_option_id":"1"}}
-------------------------
